…
pols_clean = 
  pols_df |>
  separate(mon, into = c("year","month","day"), sep = '-', convert = TRUE) |> 
  mutate(
    month = month.abb[month], #buildt-in R constant
    president_party = case_when(
      prez_gop == 1 ~ "gop",
      prez_dem == 1 ~ "dem"
    )
  ) |>
  select(-day, -prez_gop, -prez_dem) # Removes only the day, prez_gop, and prez_dem columns
pols_clean
```

    ## # A tibble: 822 × 9
    ##     year month gov_gop sen_gop rep_gop gov_dem sen_dem rep_dem president_party
    ##    <int> <chr>   <dbl>   <dbl>   <dbl>   <dbl>   <dbl>   <dbl> <chr>          
    ##  1  1947 Jan        23      51     253      23      45     198 dem            
    ##  2  1947 Feb        23      51     253      23      45     198 dem            
    ##  3  1947 Mar        23      51     253      23      45     198 dem            
    ##  4  1947 Apr        23      51     253      23      45     198 dem            
    ##  5  1947 May        23      51     253      23      45     198 dem            
    ##  6  1947 Jun        23      51     253      23      45     198 dem            
    ##  7  1947 Jul        23      51     253      23      45     198 dem            
    ##  8  1947 Aug        23      51     253      23      45     198 dem            
    ##  9  1947 Sep        23      51     253      23      45     198 dem            
    ## 10  1947 Oct        23      51     253      23      45     198 dem            
    ## # ℹ 812 more rows
…
``` r
snp_clean = 
  snp_df |>
  mutate(
    date = mdy(date),
    year = year(date),
    month = month(date, label = TRUE, abbr = TRUE) |>
      as.character()
  ) |>
  select(year, month, snp_close = close)
snp_clean
```

    ## # A tibble: 787 × 3
    ##     year month snp_close
    ##    <dbl> <chr>     <dbl>
    ##  1  2015 Jul       2080.
    ##  2  2015 Jun       2063.
    ##  3  2015 May       2107.
    ##  4  2015 Apr       2086.
    ##  5  2015 Mar       2068.
    ##  6  2015 Feb       2104.
    ##  7  2015 Jan       1995.
    ##  8  2014 Dec       2059.
    ##  9  2014 Nov       2068.
    ## 10  2014 Oct       2018.
    ## # ℹ 777 more rows
…
``` r
unemployment_clean = 
  unemployment_df |>
  pivot_longer(
    cols = Jan:Dec,
    names_to = "month",
    values_to = "unemployment_rate"
  ) |> 
  rename(year = Year) # Add this line to fix the capitalization, which will cause error in the later part (merging the data)
unemployment_clean
```

    ## # A tibble: 816 × 3
    ##     year month unemployment_rate
    ##    <dbl> <chr>             <dbl>
    ##  1  1948 Jan                 3.4
    ##  2  1948 Feb                 3.8
    ##  3  1948 Mar                 4  
    ##  4  1948 Apr                 3.9
    ##  5  1948 May                 3.5
    ##  6  1948 Jun                 3.6
    ##  7  1948 Jul                 3.6
    ##  8  1948 Aug                 3.9
    ##  9  1948 Sep                 3.8
    ## 10  1948 Oct                 3.7
    ## # ℹ 806 more rows
…
    ## New names:
    ## • `` -> `...15`
    ## • `` -> `...16`

``` r
mr_trash_wheel_df
```

    ## # A tibble: 651 × 17
    ##    dumpster month  year date                weight_tons volume_cubic_yards
    ##       <dbl> <chr> <int> <dttm>                    <dbl>              <dbl>
    ##  1        1 May    2014 2014-05-16 00:00:00        4.31                 18
    ##  2        2 May    2014 2014-05-16 00:00:00        2.74                 13
    ##  3        3 May    2014 2014-05-16 00:00:00        3.45                 15
    ##  4        4 May    2014 2014-05-17 00:00:00        3.1                  15
    ##  5        5 May    2014 2014-05-17 00:00:00        4.06                 18
    ##  6        6 May    2014 2014-05-20 00:00:00        2.71                 13
    ##  7        7 May    2014 2014-05-21 00:00:00        1.91                  8
    ##  8        8 May    2014 2014-05-28 00:00:00        3.7                  16
    ##  9        9 June   2014 2014-06-05 00:00:00        2.52                 14
    ## 10       10 June   2014 2014-06-11 00:00:00        3.76                 18
    ## # ℹ 641 more rows
    ## # ℹ 11 more variables: plastic_bottles <dbl>, polystyrene <dbl>,
    ## #   cigarette_butts <dbl>, glass_bottles <dbl>, plastic_bags <dbl>,
    ## #   wrappers <dbl>, sports_balls <int>, homes_powered <dbl>, x15 <lgl>,
    ## #   x16 <lgl>, trash_wheel_name <chr>
…
``` r
# Clean Professor Trash Wheel data
professor_trash_wheel_df = 
  read_excel(file_path, sheet = "Professor Trash Wheel", skip = 1) |>
  clean_names() |>
  drop_na(dumpster) |>
  mutate(
    year = as.integer(year),
    trash_wheel_name = "Professor Trash Wheel"
  )
professor_trash_wheel_df
```

    ## # A tibble: 119 × 14
    ##    dumpster month     year date                weight_tons volume_cubic_yards
    ##       <dbl> <chr>    <int> <dttm>                    <dbl>              <dbl>
    ##  1        1 January   2017 2017-01-02 00:00:00        1.79                 15
    ##  2        2 January   2017 2017-01-30 00:00:00        1.58                 15
    ##  3        3 February  2017 2017-02-26 00:00:00        2.32                 18
    ##  4        4 February  2017 2017-02-26 00:00:00        3.72                 15
    ##  5        5 February  2017 2017-02-28 00:00:00        1.45                 15
    ##  6        6 March     2017 2017-03-30 00:00:00        1.71                 15
    ##  7        7 April     2017 2017-04-01 00:00:00        1.82                 15
    ##  8        8 April     2017 2017-04-20 00:00:00        2.37                 15
    ##  9        9 May       2017 2017-05-10 00:00:00        2.64                 15
    ## 10       10 May       2017 2017-05-26 00:00:00        2.78                 15
    ## # ℹ 109 more rows
    ## # ℹ 8 more variables: plastic_bottles <dbl>, polystyrene <dbl>,
    ## #   cigarette_butts <dbl>, glass_bottles <dbl>, plastic_bags <dbl>,
    ## #   wrappers <dbl>, homes_powered <dbl>, trash_wheel_name <chr>

``` r
# Clean Gwynnda Trash Wheel data
gwynnda_trash_wheel_df = 
  read_excel(file_path, sheet = "Gwynnda Trash Wheel", skip = 1) |>
  clean_names() |>
  drop_na(dumpster) |>
  mutate(
    year = as.integer(year),
    trash_wheel_name = "Gwynnda, the Good Wheel of the West"
  )
gwynnda_trash_wheel_df
```

    ## # A tibble: 263 × 13
    ##    dumpster month   year date                weight_tons volume_cubic_yards
    ##       <dbl> <chr>  <int> <dttm>                    <dbl>              <dbl>
    ##  1        1 July    2021 2021-07-03 00:00:00        0.93                 15
    ##  2        2 July    2021 2021-07-07 00:00:00        2.26                 15
    ##  3        3 July    2021 2021-07-07 00:00:00        1.62                 15
    ##  4        4 July    2021 2021-07-16 00:00:00        1.76                 15
    ##  5        5 July    2021 2021-07-30 00:00:00        1.53                 15
    ##  6        6 August  2021 2021-08-11 00:00:00        2.06                 15
    ##  7        7 August  2021 2021-08-14 00:00:00        1.9                  15
    ##  8        8 August  2021 2021-08-16 00:00:00        2.16                 15
    ##  9        9 August  2021 2021-08-16 00:00:00        2.6                  15
    ## 10       10 August  2021 2021-08-17 00:00:00        3.21                 15
    ## # ℹ 253 more rows
    ## # ℹ 7 more variables: plastic_bottles <dbl>, polystyrene <dbl>,
    ## #   cigarette_butts <dbl>, plastic_bags <dbl>, wrappers <dbl>,
    ## #   homes_powered <dbl>, trash_wheel_name <chr>
…
``` r
all_trash_wheel_data <- 
  bind_rows(
    mr_trash_wheel_df, 
    professor_trash_wheel_df, 
    gwynnda_trash_wheel_df
  )
all_trash_wheel_data
```

    ## # A tibble: 1,033 × 17
    ##    dumpster month  year date                weight_tons volume_cubic_yards
    ##       <dbl> <chr> <int> <dttm>                    <dbl>              <dbl>
    ##  1        1 May    2014 2014-05-16 00:00:00        4.31                 18
    ##  2        2 May    2014 2014-05-16 00:00:00        2.74                 13
    ##  3        3 May    2014 2014-05-16 00:00:00        3.45                 15
    ##  4        4 May    2014 2014-05-17 00:00:00        3.1                  15
    ##  5        5 May    2014 2014-05-17 00:00:00        4.06                 18
    ##  6        6 May    2014 2014-05-20 00:00:00        2.71                 13
    ##  7        7 May    2014 2014-05-21 00:00:00        1.91                  8
    ##  8        8 May    2014 2014-05-28 00:00:00        3.7                  16
    ##  9        9 June   2014 2014-06-05 00:00:00        2.52                 14
    ## 10       10 June   2014 2014-06-11 00:00:00        3.76                 18
    ## # ℹ 1,023 more rows
    ## # ℹ 11 more variables: plastic_bottles <dbl>, polystyrene <dbl>,
    ## #   cigarette_butts <dbl>, glass_bottles <dbl>, plastic_bags <dbl>,
    ## #   wrappers <dbl>, sports_balls <int>, homes_powered <dbl>, x15 <lgl>,
    ## #   x16 <lgl>, trash_wheel_name <chr>
…
